Andrew Martinez Stat 331 Lab 3
…
white_30_clean_hiphop_max

# A tibble: 3 × 3
  word          mean     n
  <fct>        <dbl> <int>
1 5-0              5     1
2 hard             5     1
3 make it rain     5     1

Code

white_30_clean_hiphop_min

# A tibble: 59 × 3
   word               mean     n
   <fct>             <dbl> <int>
 1 [to be] ghost         1     1
 2 A-town                1     1
 3 ashy                  1     1
 4 ay yo trip            1     1
 5 ballin'               1     1
 6 beezy                 1     1
 7 bones                 1     1
 8 boo                   1     1
 9 boughie               1     1
10 break someone out     1     1
# … with 49 more rows
…
