Andrew Martinez Stat 331 Lab 3
…
slice_max(white_30_clean_hiphop,white_30_clean_hiphop$sum_average_familiarity)

# A tibble: 3 × 2
  word         sum_average_familiarity
  <fct>                          <dbl>
1 5-0                                5
2 hard                               5
3 make it rain                       5

Code

slice_min(white_30_clean_hiphop,white_30_clean_hiphop$sum_average_familiarity)

# A tibble: 59 × 2
   word              sum_average_familiarity
   <fct>                               <dbl>
 1 [to be] ghost                           1
 2 A-town                                  1
 3 ashy                                    1
 4 ay yo trip                              1
 5 ballin'                                 1
 6 beezy                                   1
 7 bones                                   1
 8 boo                                     1
 9 boughie                                 1
10 break someone out                       1
# … with 49 more rows
…
